# Blender MTL File: 'None'
# Material Count: 1

newmtl 2_-_Default
Ns 96.078431
Ka 0.000000 0.000000 0.000000
Kd 0.705882 0.680784 0.000000
Ks 0.449020 0.449020 0.449020
Ni 1.000000
d 0.000000
illum 2
